<svg
    height="16" 
    viewBox="0 0 16 16"
    width="16" 
    xmlns="http://www.w3.org/2000/svg">
    <defs id="defs2">
    <style
       type="text/css"
       id="current-color-scheme">
      .ColorScheme-Text {
        color:#122036;
      }
      </style>
    </defs>
    <path
        d="m8 1.9999095c-1.662 0-3 1.338-3 3s1.338 3 3 3 3-1.338 3-3-1.338-3-3-3zm0 7c-2.761424 0-5 2.2385765-5 5.0000005 2.891099 1.314731 6.878188 1.352046 10 0 0-2.761424-2.238576-5.0000005-5-5.0000005z" 
        fill="currentColor"
        fill-opacity=".992157"
        style="fill:currentColor;fill-opacity:1;stroke:none"
        class="ColorScheme-Text"/>
</svg>
