<svg 
    height="22"
    viewBox="0 0 22 22"
    width="22"
    xmlns="http://www.w3.org/2000/svg">
    <defs id="defs2">
    <style
       type="text/css"
       id="current-color-scheme">
      .ColorScheme-Text {
        color:#122036;
      }
      </style>
    </defs>
    <path 
        d="m3.125 3c-.621 0-1.125.5116581-1.125 1.1425781v13.7148439c0 .63149.504 1.142578 1.125 1.142578h15.75c.621 0 1.125-.511698 1.125-1.142578v-11.6992189c0-.63153-.504-1.1582031-1.125-1.1582031h-2.875v2h-2v2h2v2h-2v2h-2v-2h2v-2h-2v-2h2v-2h-4l-2-2h-2z" 
        fill="currentColor"
        style="fill:currentColor;fill-opacity:1;stroke:none"
        class="ColorScheme-Text"/>
</svg>
